{
  "name": "LGAfterschoolPlanFramework",
  "version": "1.2.1",
  "summary": "A short description of LGAfterschoolPlanFramework.",
  "description": "TODO: Add long description of the pod here.",
  "homepage": "https://github.com/GuiLQing/LGAfterschoolPlanFramework",
  "license": {
    "type": "MIT",
    "file": "LICENSE"
  },
  "authors": {
    "GuiLQing": "gui950823@126.com"
  },
  "source": {
    "git": "https://github.com/GuiLQing/LGAfterschoolPlanFramework.git",
    "tag": "1.2.1"
  },
  "platforms": {
    "ios": "9.0"
  },
  "frameworks": [
    "AudioToolbox",
    "AVFoundation",
    "CoreGraphics",
    "CoreMedia",
    "CoreVideo",
    "MediaPlayer",
    "MobileCoreServices",
    "OpenGLES",
    "QuartzCore",
    "UIKit",
    "VideoToolbox",
    "Accelerate"
  ],
  "libraries": [
    "z",
    "bz2",
    "stdc++"
  ],
  "requires_arc": true,
  "static_framework": true,
  "source_files": "LGAfterschoolPlanFramework/Classes/LGAfterschoolPlanFramework.framework/Headers/*.{h}",
  "vendored_frameworks": "LGAfterschoolPlanFramework/Classes/LGAfterschoolPlanFramework.framework",
  "resources": "LGAfterschoolPlanFramework/Classes/LGAfterschoolPlanFramework.bundle",
  "dependencies": {
    "AFNetworking": [

    ],
    "Masonry": [

    ],
    "JSONModel": [

    ],
    "SDWebImage": [

    ],
    "Reachability": [

    ],
    "ReactiveObjC": [

    ],
    "MJRefresh": [

    ],
    "Charts": [
      "~> 3.1.1"
    ],
    "MarqueeLabel": [
      "~> 3.2.0"
    ],
    "MBProgressHUD": [
      "~> 1.1.0"
    ],
    "YYText": [

    ],
    "MJExtension": [

    ],
    "YJTaskMark": [

    ],
    "YJMediaPlayer": [

    ],
    "YJPresentAnimation": [

    ],
    "SG_Clock": [

    ],
    "SGTools": [

    ],
    "PSGChainedMode": [

    ],
    "WZLBadge": [

    ]
  }
}
