{
  "name": "QZToast",
  "version": "0.5.0",
  "summary": "The new version of QZToast providing many styles for hints,you could use it convenient.",
  "description": "It's convenient and easy to use QZToast new version,because providing many hint styles and types.",
  "homepage": "https://github.com/Quentin123456/QZToast",
  "license": {
    "type": "MIT",
    "file": "LICENSE"
  },
  "authors": {
    "Quentin123456": "quentinzang@outlook.com"
  },
  "source": {
    "git": "https://github.com/Quentin123456/QZToast.git",
    "tag": "0.5.0"
  },
  "platforms": {
    "ios": "8.0"
  },
  "source_files": "QZToast/Classes/**/*",
  "frameworks": "UIKit"
}
