{
  "name": "BaseViewClass",
  "version": "1.0.1",
  "summary": "BaseViewClass",
  "description": "BaseViewContoller:普通控制器\nBaseNavigationControll:导航控制器\nBaseTabBarViewController: 底部 TabBar 控制器\nBaseNavigationBar: 导航条\nControllerPopByInteractivePopGestureRecognizer: 滑动返回监听",
  "homepage": "https://github.com/huawtswork/BaseViewClass",
  "license": {
    "type": "MIT",
    "file": "LICENSE"
  },
  "authors": {
    "huawt": "ghost263sky@163.com"
  },
  "source": {
    "git": "https://github.com/huawtswork/BaseViewClass.git",
    "tag": "1.0.1"
  },
  "platforms": {
    "ios": "8.0"
  },
  "source_files": "BaseViewClass/Classes/**/*",
  "resources": "BaseViewClass/BaseImage.bundle",
  "public_header_files": "BaseViewClass/Classes/**/*.h",
  "frameworks": [
    "UIKit",
    "Foundation",
    "CoreGraphics"
  ]
}
